{
   "global": {
      "librariesLocalCopy": true,
      "backupDir": "C:\\backup",
      "librariesDriver": "\\\\buildsrv3\\build",
      "localLibrariesDirectory": "C:\\buildsrv3local",
      "disableNotifications": false,
      "IISExpressPath": "C:\\Program Files\\IIS Express\\iisexpress.exe",
      "elasticsearchSnapshotsPath": "C:\\Users\\USERNAME\\AppData\\Local\\Temp\\Snapshots",
      "abcQALocation": "C:\\projects\\abc-qa",
      "proxyPort": 3000,
      "librariesDirectory": "deprecated"
   },
   "projects": {
      "common": {
         "user": {
            "__Culture": "en-GB",
            "FirstName": "Admin",
            "Surname": "User",
            "Company": "Adgistics",
            "Telephone": "123456789",
            "SSOUser": "True",
            "DefaultSite": "www"
         },
         "replace": {
            "Sql.Web.Server": "localhost",
            "Storage.WebListenerAddress": "http://host.docker.internal:8181/",
            "Keywords.Enabled": "True",
            "Azure.CloudStorage.ConnectionString": "UseDevelopmentStorage=true;DevelopmentStorageProxyUri=http://host.docker.internal",
            "ElasticSearch.SynonymsFilePath": "C:\\Program Files\\elasticsearch-2.4.6\\config\\synonyms",
            "CustomErrorsMode": "Off",
			"LoginPageEnabled": "True",
			"ImageMonkey.ServerAddress": "http://host.docker.internal:8585/"
         },
         "read": {
            "dbName": "Sql.Web.Database",
            "testdbname": "Sql.Testing.Database",
            "server": "Sql.Web.Server",
            "site": "SiteRootUrl",
            "accountability": "Accountability"
         }
      }
   },
   "version": "3.4.2"
}